<?xml version="1.0" encoding="utf-8"?>
<!-- Generator: Adobe Illustrator 16.0.0, SVG Export Plug-In . SVG Version: 6.00 Build 0)  -->
<!DOCTYPE svg PUBLIC "-//W3C//DTD SVG 1.1//EN" "http://www.w3.org/Graphics/SVG/1.1/DTD/svg11.dtd">
<svg version="1.1" id="Layer_1" xmlns="http://www.w3.org/2000/svg" xmlns:xlink="http://www.w3.org/1999/xlink" x="0px" y="0px"
	 width="32px" height="32px" viewBox="0 0 32 32" enable-background="new 0 0 32 32" xml:space="preserve">
<g>
	<g>
		<g>
			<path fill="#FFFFFF" d="M31.463,14.568l-4.85-4.85V4.117c0-1.015-0.821-1.836-1.836-1.836c-1.013,0-1.833,0.821-1.833,1.836
				v1.932l-3.61-3.61c-1.785-1.785-4.889-1.783-6.67,0.002L0.537,14.568c-0.716,0.718-0.716,1.875,0,2.593
				c0.715,0.718,1.879,0.718,2.595,0L15.257,5.035c0.394-0.392,1.09-0.392,1.483,0l12.126,12.126c0.36,0.36,0.827,0.537,1.297,0.537
				s0.938-0.179,1.299-0.537C32.179,16.443,32.179,15.286,31.463,14.568z"/>
			<path fill="#FFFFFF" d="M16.638,8.517c-0.354-0.352-0.924-0.352-1.273,0L4.696,19.181c-0.168,0.168-0.263,0.397-0.263,0.636
				v7.777c0,1.825,1.48,3.305,3.305,3.305h5.282v-8.178h5.96v8.178h5.279c1.825,0,3.305-1.479,3.305-3.305v-7.777
				c0-0.238-0.093-0.468-0.263-0.636L16.638,8.517z"/>
		</g>
	</g>
</g>
</svg>
