<?xml version="1.0" encoding="utf-8"?>
<!-- Generator: Adobe Illustrator 16.0.0, SVG Export Plug-In . SVG Version: 6.00 Build 0)  -->
<!DOCTYPE svg PUBLIC "-//W3C//DTD SVG 1.1//EN" "http://www.w3.org/Graphics/SVG/1.1/DTD/svg11.dtd">
<svg version="1.1" id="Layer_1" xmlns="http://www.w3.org/2000/svg" xmlns:xlink="http://www.w3.org/1999/xlink" x="0px" y="0px"
	 width="32px" height="32px" viewBox="0 0 32 32" enable-background="new 0 0 32 32" xml:space="preserve">
<g>
	<g>
		<path fill="#FFFFFF" d="M2.561,12.158c-0.208-0.209-0.546-0.209-0.756,0C0.639,13.323,0,14.875,0,16.526
			c0,1.652,0.639,3.203,1.805,4.369c0.106,0.104,0.245,0.156,0.38,0.156c0.137,0,0.27-0.053,0.376-0.156
			c0.208-0.209,0.208-0.547,0-0.756c-0.964-0.965-1.494-2.246-1.494-3.613c0-1.367,0.529-2.651,1.494-3.614
			C2.769,12.702,2.769,12.366,2.561,12.158z"/>
		<path fill="#FFFFFF" d="M4.431,19.836c0.135,0,0.27-0.051,0.375-0.156c0.208-0.209,0.208-0.547,0-0.754
			c-1.365-1.365-1.365-3.583,0-4.95c0.208-0.206,0.208-0.544,0-0.752c-0.208-0.208-0.546-0.208-0.753,0
			c-1.781,1.78-1.781,4.676,0,6.456C4.155,19.785,4.292,19.836,4.431,19.836z"/>
		<path fill="#FFFFFF" d="M30.193,12.158c-0.208-0.209-0.546-0.209-0.756,0c-0.206,0.208-0.206,0.544,0,0.754
			c0.966,0.963,1.496,2.247,1.496,3.614c0,1.367-0.53,2.648-1.496,3.613c-0.206,0.209-0.206,0.547,0,0.756
			c0.107,0.104,0.241,0.156,0.378,0.156c0.139,0,0.272-0.053,0.378-0.156C31.359,19.729,32,18.178,32,16.526
			C32,14.875,31.359,13.323,30.193,12.158z"/>
		<path fill="#FFFFFF" d="M27.194,13.224c-0.21,0.208-0.21,0.546,0,0.752c1.364,1.366,1.364,3.586,0,4.95
			c-0.21,0.207-0.21,0.545,0,0.754c0.104,0.105,0.243,0.156,0.375,0.156c0.139,0,0.275-0.051,0.378-0.156
			c1.78-1.779,1.78-4.676,0-6.456C27.74,13.016,27.402,13.016,27.194,13.224z"/>
		<path fill="#FFFFFF" d="M25.081,16.8v-4.796c0.022-3.657-2.438-6.083-4.552-7.049c-0.597-0.272-1.222-0.473-1.862-0.626V4
			c0-1.469-1.195-2.667-2.667-2.667S13.333,2.532,13.333,4v0.376C12.76,4.53,12.19,4.712,11.656,4.961
			C9.319,6.037,6.955,8.632,6.935,12v4.8c0,3.409-1.206,6.331-3.576,8.69c-0.144,0.139-0.195,0.348-0.133,0.539
			c0.059,0.188,0.221,0.33,0.417,0.363l5.063,0.877c0.953,0.162,1.821,0.297,2.637,0.402c0.93,1.826,2.758,2.994,4.754,2.994
			c1.998,0,3.828-1.17,4.758-2.994c0.812-0.109,1.674-0.242,2.623-0.402l5.062-0.877c0.195-0.033,0.355-0.176,0.418-0.363
			c0.063-0.191,0.011-0.4-0.132-0.539C26.338,23.018,25.081,20.1,25.081,16.8z M14.4,4c0-0.882,0.718-1.599,1.6-1.599
			c0.88,0,1.6,0.717,1.6,1.599v0.102c-1.063-0.148-2.144-0.141-3.199,0.029V4z M10.133,12.536H10.13
			c-0.294-0.002-0.53-0.243-0.53-0.539c0.015-2.495,2.001-4.075,3.174-4.614c2.05-0.946,4.583-0.946,6.648-0.002
			c0.267,0.123,0.387,0.44,0.265,0.707c-0.122,0.271-0.44,0.387-0.709,0.263c-1.788-0.816-3.983-0.82-5.759,0
			c-0.944,0.435-2.539,1.691-2.553,3.653C10.665,12.298,10.426,12.536,10.133,12.536z M19.521,27.828
			c-0.808,1.102-2.073,1.771-3.425,1.771c-1.35,0-2.613-0.67-3.425-1.771l0,0c0.212,0.021,0.413,0.041,0.614,0.059
			c0.102,0.008,0.204,0.02,0.303,0.025c0.071,0.006,0.143,0.012,0.216,0.018c1.547,0.111,2.977,0.111,4.524,0.004
			c0.089-0.008,0.181-0.014,0.271-0.021c0.113-0.006,0.234-0.02,0.351-0.031c0.182-0.016,0.362-0.031,0.552-0.049
			C19.509,27.828,19.516,27.828,19.521,27.828z"/>
	</g>
</g>
</svg>
