<?xml version="1.0"?>
<svg xmlns="http://www.w3.org/2000/svg" xmlns:xlink="http://www.w3.org/1999/xlink" version="1.1" id="Layer_1" x="0px" y="0px" viewBox="0 0 290 290" style="enable-background:new 0 0 290 290;" xml:space="preserve" width="512px" height="512px" class=""><g><g>
	<rect y="220" width="70" height="70" data-original="#000000" class="active-path" data-old_color="#000000" fill="#FFFFFF"/>
	<rect y="110" width="70" height="70" data-original="#000000" class="active-path" data-old_color="#000000" fill="#FFFFFF"/>
	<rect width="70" height="70" data-original="#000000" class="active-path" data-old_color="#000000" fill="#FFFFFF"/>
	<rect x="110" y="220" width="70" height="70" data-original="#000000" class="active-path" data-old_color="#000000" fill="#FFFFFF"/>
	<rect x="110" y="110" width="70" height="70" data-original="#000000" class="active-path" data-old_color="#000000" fill="#FFFFFF"/>
	<rect x="110" width="70" height="70" data-original="#000000" class="active-path" data-old_color="#000000" fill="#FFFFFF"/>
	<rect x="220" y="220" width="70" height="70" data-original="#000000" class="active-path" data-old_color="#000000" fill="#FFFFFF"/>
	<rect x="220" y="110" width="70" height="70" data-original="#000000" class="active-path" data-old_color="#000000" fill="#FFFFFF"/>
	<rect x="220" width="70" height="70" data-original="#000000" class="active-path" data-old_color="#000000" fill="#FFFFFF"/>
</g></g> </svg>
