<?xml version="1.0" encoding="utf-8"?>
<!-- Generator: Adobe Illustrator 16.0.0, SVG Export Plug-In . SVG Version: 6.00 Build 0)  -->
<!DOCTYPE svg PUBLIC "-//W3C//DTD SVG 1.1//EN" "http://www.w3.org/Graphics/SVG/1.1/DTD/svg11.dtd">
<svg version="1.1" id="Capa_1" xmlns="http://www.w3.org/2000/svg" xmlns:xlink="http://www.w3.org/1999/xlink" x="0px" y="0px"
	 width="512px" height="512px" viewBox="0 0 512 512" enable-background="new 0 0 512 512" xml:space="preserve">
<g>
	<path fill="#2379BF" d="M488.71,56.591c0-17.112-13.917-31.028-31.028-31.028H54.317c-17.111,0-31.027,13.916-31.027,31.028
		c0,14.42,9.929,26.459,23.271,29.926v376.649l23.271-23.271l46.542,46.542l46.542-46.542l46.542,46.542l46.541-46.542
		l46.543,46.542l46.542-46.542l46.542,46.542l46.541-46.542l23.272,23.271V86.517C478.781,83.05,488.71,71.011,488.71,56.591z
		 M449.925,425.715l-7.758-7.756l-46.541,46.542l-46.542-46.542l-46.542,46.542l-46.543-46.542l-46.541,46.542l-46.542-46.542
		l-46.542,46.542l-46.542-46.542l-7.758,7.756V87.619V64.348h387.851v23.271V425.715z M465.439,70.019V48.834H46.561v21.184
		c-4.63-2.676-7.757-7.695-7.757-13.427c0-8.556,6.958-15.514,15.514-15.514h403.364c8.556,0,15.514,6.958,15.514,15.514
		C473.195,62.324,470.068,67.342,465.439,70.019z"/>
	<path fill="#2379BF" d="M324.543,335.843H108.049c-7.966,0-14.432,3.468-14.432,7.756c0,4.29,6.466,7.759,14.432,7.759h216.494
		c7.967,0,14.434-3.469,14.434-7.759C338.977,339.311,332.51,335.843,324.543,335.843z"/>
	<path fill="#2379BF" d="M386.458,338.093c-2.595,1.466-4.184,3.405-4.184,5.506c0,2.018,1.589,4.036,4.184,5.509
		c2.743,1.396,6.497,2.25,10.251,2.25c3.749,0,7.503-0.854,10.244-2.25c2.6-1.473,4.186-3.491,4.186-5.509
		c0-2.101-1.586-4.04-4.186-5.506C401.469,335.223,391.942,335.223,386.458,338.093z"/>
	<path fill="#2379BF" d="M396.709,227.245H180.214c-7.967,0-14.434,3.467-14.434,7.757s6.467,7.757,14.434,7.757h216.495
		c7.966,0,14.43-3.467,14.43-7.757S404.675,227.245,396.709,227.245z"/>
	<path fill="#2379BF" d="M396.709,281.545H252.38c-7.967,0-14.435,3.466-14.435,7.756c0,4.289,6.468,7.758,14.435,7.758h144.329
		c7.966,0,14.43-3.469,14.43-7.758C411.139,285.011,404.675,281.545,396.709,281.545z"/>
	<path fill="#2379BF" d="M93.617,289.301c0,4.289,6.466,7.758,14.432,7.758h28.867c7.967,0,14.432-3.469,14.432-7.758
		c0-4.29-6.465-7.756-14.432-7.756h-28.867C100.083,281.545,93.617,285.011,93.617,289.301z"/>
	<path fill="#2379BF" d="M338.977,180.702c0-4.289-6.467-7.757-14.434-7.757H108.049c-7.966,0-14.432,3.468-14.432,7.757
		c0,4.29,6.466,7.758,14.432,7.758h216.494C332.51,188.46,338.977,184.992,338.977,180.702z"/>
	<path fill="#2379BF" d="M386.458,175.195c-2.595,1.466-4.184,3.405-4.184,5.507c0,2.017,1.589,4.034,4.184,5.508
		c2.743,1.396,6.497,2.25,10.251,2.25c3.896,0,7.503-0.854,10.244-2.25c2.6-1.474,4.186-3.491,4.186-5.508
		c0-2.016-1.586-4.041-4.186-5.507C401.614,172.325,391.8,172.325,386.458,175.195z"/>
	<path fill="#2379BF" d="M132.73,240.509c2.598-1.474,4.186-3.412,4.186-5.507c0-2.103-1.588-4.042-4.186-5.508
		c-5.341-2.87-15.011-2.87-20.495,0c-2.598,1.466-4.187,3.405-4.187,5.508c0,2.095,1.589,4.033,4.187,5.507
		c2.742,1.397,6.494,2.25,10.247,2.25C126.236,242.759,129.987,241.906,132.73,240.509z"/>
	<path fill="#2379BF" d="M204.894,294.809c2.6-1.474,4.186-3.413,4.186-5.508c0-2.102-1.586-4.111-4.186-5.506
		c-5.339-2.871-15.011-2.871-20.494,0c-2.597,1.465-4.186,3.489-4.186,5.506s1.589,4.034,4.186,5.508
		c2.741,1.396,6.495,2.25,10.249,2.25C198.398,297.059,202.151,296.205,204.894,294.809z"/>
	<circle fill="#2379BF" cx="333.569" cy="110.89" r="7.757"/>
	<circle fill="#2379BF" cx="302.542" cy="110.89" r="7.757"/>
	<circle fill="#2379BF" cx="364.598" cy="110.89" r="7.757"/>
	<circle fill="#2379BF" cx="271.513" cy="110.89" r="7.757"/>
	<circle fill="#2379BF" cx="395.626" cy="110.89" r="7.757"/>
	<circle fill="#2379BF" cx="178.43" cy="110.89" r="7.757"/>
	<circle fill="#2379BF" cx="209.458" cy="110.89" r="7.757"/>
	<circle fill="#2379BF" cx="240.485" cy="110.89" r="7.757"/>
	<circle fill="#2379BF" cx="426.653" cy="110.89" r="7.757"/>
	<circle fill="#2379BF" cx="147.402" cy="110.89" r="7.757"/>
	<circle fill="#2379BF" cx="116.374" cy="110.89" r="7.757"/>
	<circle fill="#2379BF" cx="85.346" cy="110.89" r="7.757"/>
</g>
</svg>
