<?xml version="1.0" encoding="utf-8"?>
<!-- Generator: Adobe Illustrator 16.0.0, SVG Export Plug-In . SVG Version: 6.00 Build 0)  -->
<!DOCTYPE svg PUBLIC "-//W3C//DTD SVG 1.1//EN" "http://www.w3.org/Graphics/SVG/1.1/DTD/svg11.dtd">
<svg version="1.1" id="Capa_1" xmlns="http://www.w3.org/2000/svg" xmlns:xlink="http://www.w3.org/1999/xlink" x="0px" y="0px"
	 width="512px" height="512px" viewBox="0 0 512 512" enable-background="new 0 0 512 512" xml:space="preserve">
<g>
	<path fill="#231F20" d="M359.338,493.935H152.663c-15.433,0-27.937-12.513-27.937-27.937V46.002
		c0-15.433,12.512-27.937,27.937-27.937H359.33c15.432,0,27.936,12.512,27.936,27.937v419.987
		C387.273,481.422,374.762,493.935,359.338,493.935z"/>
	<circle fill="#FFFFFF" cx="256" cy="452.911" r="24.613"/>
	<path fill="#FFFFFF" d="M256,50.884h-32.818c-4.537,0-8.205-3.667-8.205-8.205c0-4.538,3.668-8.205,8.205-8.205H256
		c4.537,0,8.205,3.667,8.205,8.205C264.205,47.217,260.537,50.884,256,50.884z"/>
	<path fill="#FFFFFF" d="M288.82,50.884h-8.205c-4.539,0-8.205-3.667-8.205-8.205c0-4.538,3.666-8.205,8.205-8.205h8.205
		c4.535,0,8.203,3.667,8.203,8.205C297.023,47.217,293.355,50.884,288.82,50.884z"/>
	<rect x="124.726" y="67.293" fill="#2379BF" width="262.547" height="344.594"/>
</g>
<g>
	<path fill="#FFFFFF" d="M178.059,300.999v-45V211l25.98,14.999v23.559v6.441v30V286v29.999l-25.974-14.994l-0.007-0.004V300.999
		L178.059,300.999z M230.021,300.999L230.021,300.999l25.979,15v30l-25.979-15V300.999L230.021,300.999z"/>
	<polygon fill="#FFFFFF" points="333.941,211.001 333.941,211.107 333.941,255.999 333.941,300.988 333.941,300.999 
		333.941,301.001 294.97,323.5 256.016,345.989 256.001,345.999 256.001,315.999 256.043,315.974 281.981,300.999 307.96,285.999 
		307.96,285.999 307.96,285.973 307.96,255.999 307.96,226.091 307.96,225.999 	"/>
	<path fill="#FFFFFF" d="M256.001,166.001l-0.182,0.104c-25.92,14.965-51.84,29.929-77.76,44.894v0.002L204.04,226
		c17.27-9.971,34.538-19.94,51.808-29.911l52.036,29.865l0.078,0.046l0,0l25.979-15v-0.001l-0.09-0.053L256.001,166.001
		L256.001,166.001z"/>
	<polygon fill="#FFFFFF" points="230.021,270.999 230.021,255.999 230.021,240.999 256,255.999 256,255.999 256,256.058 
		256,285.999 243.011,278.5 230.056,271.021 230.021,270.999 	"/>
	<polygon fill="#FFFFFF" points="281.982,241 281.982,241.074 281.982,255.999 281.982,270.958 281.982,270.999 281.982,270.999 
		268.99,278.5 256.071,285.959 256.001,285.999 256.001,256.057 256.001,255.999 256.001,255.999 256.052,255.97 	"/>
	<polygon fill="#FFFFFF" points="256.001,226 256.126,226.072 268.99,233.5 281.982,240.999 281.982,241 256.001,255.999 
		256.001,255.999 230.021,241 230.021,240.999 230.084,240.963 243.011,233.5 	"/>
</g>
</svg>
