[
    {
        "name": "nelexa/zip",
        "version": "3.1.9",
        "version_normalized": "3.1.9.0",
        "source": {
            "type": "git",
            "url": "https://github.com/Ne-Lexa/php-zip.git",
            "reference": "c9871c9f805fe869150d9dacc6a1e7c2db2798fe"
        },
        "dist": {
            "type": "zip",
            "url": "https://api.github.com/repos/Ne-Lexa/php-zip/zipball/c9871c9f805fe869150d9dacc6a1e7c2db2798fe",
            "reference": "c9871c9f805fe869150d9dacc6a1e7c2db2798fe",
            "shasum": ""
        },
        "require": {
            "ext-zlib": "*",
            "php": "^5.5 || ^7.0",
            "psr/http-message": "^1.0"
        },
        "require-dev": {
            "phpunit/phpunit": "~4.8|~5.7",
            "zendframework/zend-diactoros": "^1.4"
        },
        "suggest": {
            "ext-bz2": "Needed to support BZIP2 compression",
            "ext-fileinfo": "Needed to get mime-type file",
            "ext-mcrypt": "Needed to support encrypt zip entries or use ext-openssl",
            "ext-openssl": "Needed to support encrypt zip entries or use ext-mcrypt"
        },
        "time": "2018-11-02T12:15:08+00:00",
        "type": "library",
        "installation-source": "dist",
        "autoload": {
            "psr-4": {
                "PhpZip\\": "src/PhpZip"
            }
        },
        "notification-url": "https://packagist.org/downloads/",
        "license": [
            "MIT"
        ],
        "authors": [
            {
                "name": "Ne-Lexa",
                "email": "alexey@nelexa.ru",
                "role": "Developer"
            }
        ],
        "description": "PhpZip is a php-library for extended work with ZIP-archives. Open, create, update, delete, extract and get info tool. Supports appending to existing ZIP files, WinZip AES encryption, Traditional PKWARE Encryption, ZipAlign tool, BZIP2 compression, external file attributes and ZIP64 extensions. Alternative ZipArchive. It does not require php-zip extension.",
        "homepage": "https://github.com/Ne-Lexa/php-zip",
        "keywords": [
            "archive",
            "extract",
            "unzip",
            "winzip",
            "zip",
            "zipalign",
            "ziparchive"
        ]
    },
    {
        "name": "psr/http-message",
        "version": "1.0.1",
        "version_normalized": "1.0.1.0",
        "source": {
            "type": "git",
            "url": "https://github.com/php-fig/http-message.git",
            "reference": "f6561bf28d520154e4b0ec72be95418abe6d9363"
        },
        "dist": {
            "type": "zip",
            "url": "https://api.github.com/repos/php-fig/http-message/zipball/f6561bf28d520154e4b0ec72be95418abe6d9363",
            "reference": "f6561bf28d520154e4b0ec72be95418abe6d9363",
            "shasum": ""
        },
        "require": {
            "php": ">=5.3.0"
        },
        "time": "2016-08-06T14:39:51+00:00",
        "type": "library",
        "extra": {
            "branch-alias": {
                "dev-master": "1.0.x-dev"
            }
        },
        "installation-source": "dist",
        "autoload": {
            "psr-4": {
                "Psr\\Http\\Message\\": "src/"
            }
        },
        "notification-url": "https://packagist.org/downloads/",
        "license": [
            "MIT"
        ],
        "authors": [
            {
                "name": "PHP-FIG",
                "homepage": "http://www.php-fig.org/"
            }
        ],
        "description": "Common interface for HTTP messages",
        "homepage": "https://github.com/php-fig/http-message",
        "keywords": [
            "http",
            "http-message",
            "psr",
            "psr-7",
            "request",
            "response"
        ]
    }
]
